{
    "name": "Example Contest",
    "description": "An example contest to illustrate the format of OpenContest programming contests",
    "start-time": "2021-07-01T00:00:00-05:00",
    "length": 180,
    "problems": ["aplusb"]
}
